{
    "project_name": "Awesomium",
    "project_slug": "{{ cookiecutter.project_name.lower().replace(' ', '_') }}",
    "project_maintainer": "Sir Maintainer",
    "maintainer_email": "some@host.domain",
    "project_description": "Awesome project",
    "python_version": "3.8"
}
